{
  "port": 8000,
  "socket": "ws://localhost:8000/",
  "webpackDevMiddleware": {
    "noInfo": false,
    "publicPath": "/dist/",
    "stats": {
      "colors": true
    },
    "lazy": false,
    "watchOptions": {
      "aggregateTimeout": 300,
      "poll": true
    }
  }
}